<?xml version="1.0" encoding="UTF-8"?>
<!-- Created with Inkscape (http://www.inkscape.org/) -->
<svg height="71.387mm" version="1.1" viewBox="0 0 67.697 71.387" width="67.697mm" xmlns="http://www.w3.org/2000/svg"
     xmlns:cc="http://creativecommons.org/ns#" xmlns:dc="http://purl.org/dc/elements/1.1/"
     xmlns:rdf="http://www.w3.org/1999/02/22-rdf-syntax-ns#">
  <defs>
    <linearGradient gradientUnits="userSpaceOnUse" id="linearGradient4666" x1="260.71" x2="317.5" y1="423.95"
                    y2="405.56">
      <stop offset="0" stop-color="#ffd82a"/>
      <stop offset="1" stop-color="#ffa22a"/>
    </linearGradient>
    <linearGradient gradientUnits="userSpaceOnUse" id="linearGradient4689" x1="335.6" x2="281.36" y1="460.69"
                    y2="493.92">
      <stop offset="0" stop-color="#d45500"/>
      <stop offset="1" stop-color="#ff7f2a"/>
    </linearGradient>
    <linearGradient gradientUnits="userSpaceOnUse" id="linearGradient4705" x1="334.91" x2="418.55" y1="552.81"
                    y2="566.95">
      <stop offset="0" stop-color="#80a"/>
      <stop offset="1" stop-color="#d40055"/>
    </linearGradient>
    <linearGradient gradientTransform="matrix(.26458 0 0 .26458 -2.2439 8.3473)" gradientUnits="userSpaceOnUse" id="linearGradient4713" x1="394.61" x2="456.44"
                    y1="441.86" y2="457.42">
      <stop offset="0" stop-color="#008080"/>
      <stop offset="1" stop-color="#004d4d"/>
    </linearGradient>
    <linearGradient gradientUnits="userSpaceOnUse" id="linearGradient4721" x1="403.92" x2="467.17" y1="400.83"
                    y2="420.33">
      <stop offset="0" stop-color="#0a4"/>
      <stop offset="1" stop-color="#006e2c"/>
    </linearGradient>
    <linearGradient gradientUnits="userSpaceOnUse" id="linearGradient4737" x1="80.056" x2="77.083" y1="91.998"
                    y2="105.8">
      <stop offset="0" stop-color="#fff" stop-opacity=".752"/>
      <stop offset="1" stop-color="#fff" stop-opacity="0"/>
    </linearGradient>
    <linearGradient gradientTransform="matrix(-1 9.0027e-5 9.0027e-5 1 190.75 -.2472)" gradientUnits="userSpaceOnUse" id="linearGradient4737-0" x1="62.283" x2="69.786"
                    y1="92.561" y2="106.18">
      <stop offset="0" stop-color="#fff" stop-opacity=".785"/>
      <stop offset="1" stop-color="#fff" stop-opacity="0"/>
    </linearGradient>
    <linearGradient gradientUnits="userSpaceOnUse" id="linearGradient4782" x1="96.485" x2="96.758" y1="164.44"
                    y2="153.03">
      <stop offset="0" stop-color="#fff"/>
      <stop offset="1" stop-color="#d35f5f" stop-opacity="0"/>
    </linearGradient>
  </defs>
  <metadata>
    <rdf:RDF>
      <cc:Work rdf:about="">
        <dc:format>image/svg+xml</dc:format>
        <dc:type rdf:resource="http://purl.org/dc/dcmitype/StillImage"/>
        <dc:title/>
        <dc:title/>
      </cc:Work>
    </rdf:RDF>
  </metadata>
  <g transform="translate(-72.741 -121.46)">
    <g transform="translate(11.225 27.208)">
      <g>
        <path d="m234.55 358.5 87.9 266.67h19.926a30.5 101.46 0 0 1-4.375-52.148 30.5 101.46 0 0 1 9.9062-74.697l-38.15-139.83z"
              fill="url(#linearGradient4666)"
              transform="scale(.26458)"/>
        <path d="m413.68 358.5-32.766 121.94a30.5 101.46 0 0 1 18.084 92.582 30.5 101.46 0 0 1-4.3809 52.148h5.7344l86.314-266.67z"
              fill="url(#linearGradient4721)"
              transform="scale(.26458)"/>
        <path
          d="m106.72 105.08-13.161 48.867 0.0088 0.032 4.2545-15.833c2.4839-0.53226 5.0467-0.803 7.6212-0.80512 3.267 9e-3 6.107 0.33302 9.1875 1.1888l10.194-31.605c-6.4131-1.9393-10.352-2.5298-18.106-1.844z"
          fill="url(#linearGradient4713)"/>
        <path d="m323.97 410.79c-21.632 8.5689-41.397 23.715-57.67 44.193l56.088 170.16h0.0488l-22.883-69.426a110 86.5 0 0 1 48.975-54.912z"
              fill="url(#linearGradient4689)"
              transform="scale(.26458)"/>
        <path d="m407 487.52a110 86.5 0 0 0-28.805 3.043l-16.08 59.842-13.539-49.627a110 86.5 0 0 0-49.02 54.938l22.893 69.453h77.904l42.949-132.7a110 86.5 0 0 0-36.303-4.9531z"
              fill="url(#linearGradient4705)"
              transform="scale(.26458)"/>
        <path d="m61.525 94.506 20.455 0.33062 4.1117 14.059-15.688 11.511z" fill="url(#linearGradient4737)"
              transform="rotate(.0051582)"/>
        <path d="m110.42 152.06-29.365 2e-3 4.2477 13.349 20.705 0.22193z" fill="url(#linearGradient4782)"
              opacity=".441"/>
        <path d="m129.21 94.248-20.455 0.33246-3.7362 11.066 19.992 4.4005z" fill="url(#linearGradient4737-0)"/>
        <path d="m64.672 99.108-0.43926-1.3252 4.5161 0.02144 21.326 64.424 0.43506 1.2775-4.5118 0.0263z" fill="#fff"
              opacity=".27"/>
        <path d="m114.58 97.137-0.32077 1.1957-12.57 46.91-4.011 0.22867 12.885-48.086z" fill="#fff" opacity=".27"/>
      </g>
    </g>
  </g>
</svg>
